1. uf75 (100): 1s - OK cnt <= 100
2. uf150(100): 12s - OK cnt <= 100
3. uf250(100): 120s - TLE cnt <= 100
4. bmc: 120s - TLE  cnt <= 30
5. hanoi: 30s - OK cnt <= 10
6. pigeon_hole: 120s - OK cnt <= 10
7. 3bitadd31: 120s - TLE cnt <= 10
8. 3bitadd32: 120s - TLE cnt <= 10
