Test number 1 start
Parsing finished - time used: 5ms
Solving finished - time used: 52ms
Total time used: 58ms
Clauses count 148
Learnt clauses count 108
Deleted clauses count 86
Restarts count 0
Conflicts count 186
Database compactions count 0
UNSAT
Test number 1 end

Test number 2 start
Parsing finished - time used: 3ms
Solving finished - time used: 52ms
Total time used: 56ms
Clauses count 152
Learnt clauses count 134
Deleted clauses count 87
Restarts count 0
Conflicts count 210
Database compactions count 0
UNSAT
Test number 2 end

Test number 3 start
Parsing finished - time used: 3ms
Solving finished - time used: 49ms
Total time used: 53ms
Clauses count 156
Learnt clauses count 102
Deleted clauses count 108
Restarts count 0
Conflicts count 195
Database compactions count 0
UNSAT
Test number 3 end

Test number 4 start
Parsing finished - time used: 4ms
Solving finished - time used: 63ms
Total time used: 67ms
Clauses count 172
Learnt clauses count 108
Deleted clauses count 62
Restarts count 0
Conflicts count 262
Database compactions count 1
UNSAT
Test number 4 end

Test number 5 start
Parsing finished - time used: 4ms
Solving finished - time used: 69ms
Total time used: 73ms
Clauses count 180
Learnt clauses count 142
Deleted clauses count 41
Restarts count 0
Conflicts count 276
Database compactions count 1
UNSAT
Test number 5 end

Test number 6 start
Parsing finished - time used: 4ms
Solving finished - time used: 68ms
Total time used: 73ms
Clauses count 184
Learnt clauses count 133
Deleted clauses count 54
Restarts count 0
Conflicts count 276
Database compactions count 1
UNSAT
Test number 6 end

Test number 7 start
Parsing finished - time used: 4ms
Solving finished - time used: 76ms
Total time used: 81ms
Clauses count 192
Learnt clauses count 152
Deleted clauses count 64
Restarts count 0
Conflicts count 308
Database compactions count 1
UNSAT
Test number 7 end

Test number 8 start
Parsing finished - time used: 5ms
Solving finished - time used: 104ms
Total time used: 109ms
Clauses count 180
Learnt clauses count 123
Deleted clauses count 92
Restarts count 0
Conflicts count 389
Database compactions count 2
UNSAT
Test number 8 end

Test number 9 start
Parsing finished - time used: 4ms
Solving finished - time used: 70ms
Total time used: 75ms
Clauses count 200
Learnt clauses count 75
Deleted clauses count 124
Restarts count 0
Conflicts count 281
Database compactions count 1
UNSAT
Test number 9 end

Test number 10 start
Parsing finished - time used: 5ms
Solving finished - time used: 74ms
Total time used: 79ms
Clauses count 212
Learnt clauses count 133
Deleted clauses count 67
Restarts count 0
Conflicts count 286
Database compactions count 1
UNSAT
Test number 10 end

Test number 11 start
Parsing finished - time used: 5ms
Solving finished - time used: 103ms
Total time used: 108ms
Clauses count 228
Learnt clauses count 155
Deleted clauses count 46
Restarts count 0
Conflicts count 395
Database compactions count 2
UNSAT
Test number 11 end

Test number 12 start
Parsing finished - time used: 9ms
Solving finished - time used: 343ms
Total time used: 352ms
Clauses count 356
Learnt clauses count 114
Deleted clauses count 97
Restarts count 0
Conflicts count 1084
Database compactions count 9
UNSAT
Test number 12 end

Test number 13 start
Parsing finished - time used: 16ms
Solving finished - time used: 18ms
Total time used: 34ms
Clauses count 396
Learnt clauses count 0
Deleted clauses count 0
Restarts count 0
Conflicts count 0
Database compactions count 0
SAT
1 2 3 4 5 6 7 8 9 10 11 12 13 14 15 16 17 18 19 20 21 22 23 24 25 26 27 28 29 30 31 32 33 34 35 36 37 38 39 40 41 42 43 44 45 46 47 48 49 50 51 52 53 54 55 56 57 58 59 60 61 62 63 64 65 66 67 68 69 70 71 72 73 74 75 76 77 78 79 80 81 82 83 84 85 86 87 88 89 90 91 92 93 94 95 96 97 98 99 100 101 102 103 104 105 106 107 108 109 110 111 112 113 114 115 116 117 118 119 120 121 122 123 124 125 126 127 128 129 130 131 132 133 134 135 136 137 138 139 140 141 142 143 144 145 146 147 148 149 150 151 152 153 154 155 156 157 158 159 160 161 162 163 164 165 166 167 168 169 170 171 172 173 174 175 176 177 178 179 180 181 182 183 184 185 186 187 188 189 190 191 192 193 194 195 196 197 198 199 200 201 202 203 204 205 206 207 208 209 210 211 212 213 214 215 216 217 218 219 220 221 222 223 224 225 226 227 228 229 230 231 232 233 234 235 236 237 238 239 240 241 242 243 244 245 246 247 248 249 250 251 252 253 254 255 256 257 258 259 260 261 262 263 264 265 266 267 268 269 270 271 272 273 274 275 276 277 278 279 280 281 282 283 284 285 286 287 288 289 290 291 292 293 294 295 296 297 298 299 300 
Test number 13 end

